{
  "type": "layer-target",
  "settings": {
    "color": "#FFFFFF",
    "interval": 1000,
    "maxtracklen": 100,
    "name": "MV Yolla",
    "options": {
      "showdash": false,
      "showrph": false,
      "showbatt": false,
      "showtrack": true,
      "setstate": false,
      "autotrack": true
    },
    "size": {
      "length": 9.2,
      "loffset": 4.5,
      "width": 3
    },
    "url": "data/platformdata.api.Platform/SHIP_STATUS.YOLLA",
    "commandurl": ""
  }
}
