{
  "type": "layer-target",
  "settings": {
    "color": "black",
    "interval": 1000,
    "maxtracklen": 300,
    "name": "ASVSimple SIM",
    "options": {
      "showdash": true,
      "showrph": true,
      "showbatt": true,
      "showtrack": true,
      "setstate": true,
      "autotrack": false
    },
    "size": {
      "length": 10,
      "loffset": 5,
      "width": 5
    },
    "url": "data/platformdata.api.Platform/AUVSTAT.ASV_SIMPLE",
    "commandurl": "send_command/platformdata.api.Platform/ASV_SIMPLE?ip=10.23.14.115&port=8081&template=forms/send-command.html"
  }
}
