{
    "type": "layer-target",
    "settings": {
        "color": "#FFFFFF",
        "interval": 2000,
        "maxtracklen": 100,
        "name": "RV Falkor",
        "options": {
            "showdash": false,
            "showrph": false,
            "showbatt": false,
            "showtrack": true,
            "setstate": false,
            "autotrack": true
        },
        "size": {"length": 100, "loffset": 15, "width": 15},
        "url": "data/platformdata.api.Platform/SHIP_STATUS.FALKOR",
        "commandurl": ""
    }
}
