{
  "type": "layer-target",
  "settings": {
    "color": "blue",
    "interval": 2000,
    "maxtracklen": 100,
    "name": "AUV UMIver",
    "options": {
      "showdash": false,
      "showrph": false,
      "showbatt": true,
      "showtrack": true,
      "setstate": false,
      "autotrack": false
    },
    "size": 4,
    "url": "data/platformdata.api.Platform/umich.iver",
    "commandurl": ""
  }
}
